{
    "region" : "us-east-1",
    "profile" : "default",
    "configuration" : "Release",
    "tag"           : "COPMDU.Api:latest",
    "cluster"       : "clusterserenaat",
    "launch-type"   : "FARGATE",
    "launch-subnets" : "subnet-27ba5040,subnet-69889646,subnet-2679d96c",
    "launch-security-groups" : "sg-3941c370",
    "assign-public-ip"       : true,
    "task-definition-name"   : "COPMDU.Api",
    "task-cpu"               : "512",
    "task-memory"            : "1024",
    "task-definition-task-role" : "arn:aws:iam::396860471602:role/ecsTaskExecutionRole",
    "task-execution-role"       : "ecsTaskExecutionRole",
    "container-name"            : "COPMDU.Api",
    "container-port-mapping"    : "80:80",
    "container-environment-variables" : "\"ASPNETCORE_ENVIRONMENT\"=\"UAT\"",
    "skip-image-push"                 : false,
    "cluster-service"                 : "at-service",
    "desired-count"                   : 18,
    "deployment-minimum-healthy-percent" : 50,
    "deployment-maximum-percent"         : 200,
    "vstoolkit-deployment-mode"          : "DeployService",
    "docker-build-working-dir"           : "",
    "task-definition-network-mode"       : "bridge",
    "container-memory-hard-limit"        : 1024,
    "container-memory-soft-limit"        : 700,
    "elb-target-group"                   : "arn:aws:elasticloadbalancing:us-east-1:396860471602:targetgroup/ecs-serena-at-prod-service/3e27d20b259810e4",
    "elb-container-port"                 : 80,
    "placement-strategy"                 : "spread=attribute:ecs.availability-zone,spread=instanceId"
}